<svg xmlns="http://www.w3.org/2000/svg" width="21.396" height="23.693" viewBox="0 0 21.396 23.693">
  <g id="phone-call_1_" data-name="phone-call (1)" transform="translate(-24.393 0.621)">
    <path id="Path_187" data-name="Path 187" d="M285.651,109.067a5.92,5.92,0,0,0-3.681-2.694,6.035,6.035,0,0,0-1.174-.167l-.051,1.322a4.7,4.7,0,0,1,.911.13,4.632,4.632,0,0,1,3.111,6.443l1.212.528A5.958,5.958,0,0,0,285.651,109.067Z" transform="translate(-244.568 -101.523)" fill="#fff" stroke="#fff" stroke-width="1"/>
    <path id="Path_188" data-name="Path 188" d="M280.026,182.513a2.649,2.649,0,0,0-2.142-1.253l-.051,1.321a1.327,1.327,0,0,1,1.114,1.942l1.214.529a2.67,2.67,0,0,0,.19-.538A2.632,2.632,0,0,0,280.026,182.513Z" transform="translate(-241.783 -173.268)" fill="#fff" stroke="#fff" stroke-width="1"/>
    <path id="Path_189" data-name="Path 189" d="M291.242,35.441a9.278,9.278,0,0,0-7.524-4.39l-.051,1.321a7.953,7.953,0,0,1,7.427,9.775,8.043,8.043,0,0,1-.487,1.439l1.213.528a9.379,9.379,0,0,0,.561-1.663A9.219,9.219,0,0,0,291.242,35.441Z" transform="translate(-247.36 -29.682)" fill="#fff" stroke="#fff" stroke-width="1"/>
    <g id="Group_156" data-name="Group 156" transform="translate(24.896 0)">
      <path id="Path_190" data-name="Path 190" d="M42.828,18.3l-2.166-3.546a2.026,2.026,0,0,0-2.711-.711l-1.214.733c-.416-.06-1.761-.434-3.162-2.728a6.782,6.782,0,0,1-1.1-3.158,2.68,2.68,0,0,1,.117-.9l1.138-.7a2.022,2.022,0,0,0,.671-2.78L32.235.965A2.033,2.033,0,0,0,29.491.272h0A9.034,9.034,0,0,0,24.943,7.2a13.7,13.7,0,0,0,2.275,8.36l.33.541a13.7,13.7,0,0,0,6.4,5.839,8.74,8.74,0,0,0,3.227.628,9.507,9.507,0,0,0,4.98-1.489,2.025,2.025,0,0,0,.671-2.78ZM30.157,1.415a.7.7,0,0,1,.949.24l2.169,3.551a.7.7,0,0,1-.232.962l-.912.557-2.869-4.7c.275-.211.9-.613.9-.613Zm7.679,19.8a7.356,7.356,0,0,1-3.4-.506,12.4,12.4,0,0,1-5.758-5.3l-.33-.541A12.4,12.4,0,0,1,26.26,7.332a7.357,7.357,0,0,1,1.1-3.258,7.536,7.536,0,0,1,.9-1.148l3,4.914a4.113,4.113,0,0,0-.11.934,7.631,7.631,0,0,0,1.292,3.965A7.631,7.631,0,0,0,35.384,15.7a4.116,4.116,0,0,0,.881.329l3,4.914A7.531,7.531,0,0,1,37.837,21.219Zm3.63-1.266a9.969,9.969,0,0,1-.942.509l-2.868-4.695s.951-.574.969-.583a.7.7,0,0,1,.907.262L41.7,18.992a.7.7,0,0,1-.232.962Z" transform="translate(-24.896 0)" fill="#fff" stroke="#fff" stroke-width="1"/>
    </g>
  </g>
</svg>
