<svg id="instagram" xmlns="http://www.w3.org/2000/svg" width="24.186" height="24.186" viewBox="0 0 24.186 24.186">
  <path id="Path_180" data-name="Path 180" d="M16.981,0H7.205A7.213,7.213,0,0,0,0,7.205v9.776a7.213,7.213,0,0,0,7.205,7.205h9.776a7.213,7.213,0,0,0,7.205-7.205V7.205A7.213,7.213,0,0,0,16.981,0Zm4.772,16.981a4.772,4.772,0,0,1-4.772,4.772H7.205a4.772,4.772,0,0,1-4.772-4.772V7.205A4.772,4.772,0,0,1,7.205,2.433h9.776a4.772,4.772,0,0,1,4.772,4.772v9.776Z" fill="#fff"/>
  <path id="Path_181" data-name="Path 181" d="M139.255,133a6.255,6.255,0,1,0,6.255,6.255A6.262,6.262,0,0,0,139.255,133Zm0,10.078a3.822,3.822,0,1,1,3.822-3.822A3.822,3.822,0,0,1,139.255,143.078Z" transform="translate(-127.162 -127.162)" fill="#fff"/>
  <circle id="Ellipse_18" data-name="Ellipse 18" cx="1.499" cy="1.499" r="1.499" transform="translate(16.862 4.386)" fill="#fff"/>
</svg>
